C:\users\miinhuey.seah\OneDrive - NTT\desktop\jenkins\spring-petclinic\src\main\java\org\springframework\samples\petclinic\model\BaseEntity.java
C:\users\miinhuey.seah\OneDrive - NTT\desktop\jenkins\spring-petclinic\src\main\java\org\springframework\samples\petclinic\system\CacheConfiguration.java
C:\users\miinhuey.seah\OneDrive - NTT\desktop\jenkins\spring-petclinic\src\main\java\org\springframework\samples\petclinic\vet\Vets.java
C:\users\miinhuey.seah\OneDrive - NTT\desktop\jenkins\spring-petclinic\src\main\java\org\springframework\samples\petclinic\owner\PetTypeFormatter.java
C:\users\miinhuey.seah\OneDrive - NTT\desktop\jenkins\spring-petclinic\src\main\java\org\springframework\samples\petclinic\owner\Owner.java
C:\users\miinhuey.seah\OneDrive - NTT\desktop\jenkins\spring-petclinic\src\main\java\org\springframework\samples\petclinic\owner\PetValidator.java
C:\users\miinhuey.seah\OneDrive - NTT\desktop\jenkins\spring-petclinic\src\main\java\org\springframework\samples\petclinic\vet\Specialty.java
C:\users\miinhuey.seah\OneDrive - NTT\desktop\jenkins\spring-petclinic\src\main\java\org\springframework\samples\petclinic\model\package-info.java
C:\users\miinhuey.seah\OneDrive - NTT\desktop\jenkins\spring-petclinic\src\main\java\org\springframework\samples\petclinic\system\CrashController.java
C:\users\miinhuey.seah\OneDrive - NTT\desktop\jenkins\spring-petclinic\src\main\java\org\springframework\samples\petclinic\vet\VetController.java
C:\users\miinhuey.seah\OneDrive - NTT\desktop\jenkins\spring-petclinic\src\main\java\org\springframework\samples\petclinic\owner\PetType.java
C:\users\miinhuey.seah\OneDrive - NTT\desktop\jenkins\spring-petclinic\src\main\java\org\springframework\samples\petclinic\model\Person.java
C:\users\miinhuey.seah\OneDrive - NTT\desktop\jenkins\spring-petclinic\src\main\java\org\springframework\samples\petclinic\system\WelcomeController.java
C:\users\miinhuey.seah\OneDrive - NTT\desktop\jenkins\spring-petclinic\src\main\java\org\springframework\samples\petclinic\owner\OwnerController.java
C:\users\miinhuey.seah\OneDrive - NTT\desktop\jenkins\spring-petclinic\src\main\java\org\springframework\samples\petclinic\PetClinicApplication.java
C:\users\miinhuey.seah\OneDrive - NTT\desktop\jenkins\spring-petclinic\src\main\java\org\springframework\samples\petclinic\vet\Vet.java
C:\users\miinhuey.seah\OneDrive - NTT\desktop\jenkins\spring-petclinic\src\main\java\org\springframework\samples\petclinic\vet\VetRepository.java
C:\users\miinhuey.seah\OneDrive - NTT\desktop\jenkins\spring-petclinic\src\main\java\org\springframework\samples\petclinic\owner\Visit.java
C:\users\miinhuey.seah\OneDrive - NTT\desktop\jenkins\spring-petclinic\src\main\java\org\springframework\samples\petclinic\owner\OwnerRepository.java
C:\users\miinhuey.seah\OneDrive - NTT\desktop\jenkins\spring-petclinic\src\main\java\org\springframework\samples\petclinic\model\NamedEntity.java
C:\users\miinhuey.seah\OneDrive - NTT\desktop\jenkins\spring-petclinic\src\main\java\org\springframework\samples\petclinic\owner\Pet.java
C:\users\miinhuey.seah\OneDrive - NTT\desktop\jenkins\spring-petclinic\src\main\java\org\springframework\samples\petclinic\owner\PetController.java
C:\users\miinhuey.seah\OneDrive - NTT\desktop\jenkins\spring-petclinic\src\main\java\org\springframework\samples\petclinic\owner\VisitController.java
